社會科學統計方法
…
tibble是一個新的資料型態，比資料框(data.frame)多了變數的資訊，而且會顯示前面十個觀察值的資訊，以及螢幕剛好足夠容納的下的變數。例如打開pp0797B2.sav這個檔案，但是把它視為tibble而不是data.frame：

library(foreign)
setwd("~/Library/Mobile Documents/com~apple~CloudDocs/eastasia")
pp0797b2<-read.spss('PP0797B2.sav', to.data.frame=TRUE)
tibble_pp0797b2<-as_tibble(pp0797b2)
tibble_pp0797b2

## # A tibble: 2,058 x 24
##    Q1     Q2     Q3     Q4     Q5    Q6    Q7    Q8    Q9    Q10   partyid
##    <fct>  <fct>  <fct>  <fct>  <fct> <fct> <fct> <fct> <fct> <fct> <fct>  
##  1 很難說 同意   不同意 同意   同意  不同意… 同意  不相信… 不同意… 不同意… 國民黨 
##  2 非常不同意… 非常同意… 不同意 同意   很難說… 不同意… 不同意… 不相信… 不同意… 不同意… 中立及看情形…
##  3 非常不同意… 非常同意… 非常不同意… 非常同意… 同意  非常同意… 不同意… 不相信… 不同意… 不同意… 中立及看情形…
##  4 同意   同意   不同意 同意   不同意… 非常不同… 不同意… 很難說… 不同意… 非常同意… 民進黨 
##  5 非常不同意… 同意   不同意 不同意 不同意… 不同意… 同意  不相信… 同意  非常不同… 國民黨 
##  6 不同意 不同意 同意   同意   同意  同意  同意  不相信… 不同意… 非常同意… 中立及看情形…
##  7 非常不同意… 同意   不同意 不同意 不同意… 不同意… 非常同意… 非常不相… 不同意… 非常同意… 中立及看情形…
##  8 非常不同意… 非常同意… 非常不同意… 非常同意… 不同意… 不同意… 同意  非常相信… 不同意… 不同意… 民進黨 
##  9 同意   非常不同意… 非常同意… 不同意 非常不同… 不同意… 非常同意… 相信  不同意… 非常同意… 民進黨 
## 10 不同意 不同意 不同意 同意   不同意… 非常不同… 同意  不相信… 不同意… 不同意… 民進黨 
## # ... with 2,048 more rows, and 13 more variables: PARTY <fct>,
## #   tondu <fct>, ethnic <fct>, age <fct>, edu <fct>, sengiF <fct>,
## #   sengiM <fct>, CAREER <fct>, CAREER8 <fct>, TOWNID <dbl>, arear <fct>,
## #   sex <fct>, w <dbl>

可以看出tibble比較適用於大量的資料，讓資料分析更加容易。

也可以用print功能，決定輸出幾個觀察值以及決定螢幕寬度。

tibble_pp0797b2 %>%
  print(n=5, width=100)

## # A tibble: 2,058 x 24
##   Q1     Q2     Q3     Q4     Q5     Q6    Q7    Q8    Q9    Q10   partyid
##   <fct>  <fct>  <fct>  <fct>  <fct>  <fct> <fct> <fct> <fct> <fct> <fct>  
## 1 很難說 同意   不同意 同意   同意   不同意… 同意  不相信… 不同意… 不同意… 國民黨 
## 2 非常不同意… 非常同意… 不同意 同意   很難說 不同意… 不同意… 不相信… 不同意… 不同意… 中立及看情形…
## 3 非常不同意… 非常同意… 非常不同意… 非常同意… 同意   非常同意… 不同意… 不相信… 不同意… 不同意… 中立及看情形…
## 4 同意   同意   不同意 同意   不同意 非常不同… 不同意… 很難說… 不同意… 非常同意… 民進黨 
## 5 非常不同意… 同意   不同意 不同意 不同意 不同意… 同意  不相信… 同意  非常不同… 國民黨 
##   PARTY  tondu    ethnic
##   <fct>  <fct>    <fct> 
## 1 偏國民黨… 維持現狀，以後… 都是  
## 2 中立無反應… 維持現狀，看情… 台灣人
## 3 中立無反應… 永遠維持現狀… 都是  
## 4 普通支持民… 維持現狀，看情… 台灣人
## 5 非常支持國… 維持現狀，以後… 都是  
## # ... with 2,053 more rows, and 10 more variables: age <fct>, edu <fct>,
## #   sengiF <fct>, sengiM <fct>, CAREER <fct>, CAREER8 <fct>, TOWNID <dbl>,
## #   arear <fct>, sex <fct>, w <dbl>
…
3.2 過濾(filter)

filter可以篩選符合條件的變數的觀察值，篩選的變數可以超過一個，例如：

tibble_pp0797b2.filter<-filter(tibble_pp0797b2, sex=="男性", TOWNID>6300)
tibble_pp0797b2.filter

## # A tibble: 130 x 24
##    Q1     Q2     Q3     Q4     Q5    Q6    Q7    Q8    Q9    Q10   partyid
##    <fct>  <fct>  <fct>  <fct>  <fct> <fct> <fct> <fct> <fct> <fct> <fct>  
##  1 非常不同意… 非常同意… 不同意 同意   很難說… 不同意… 不同意… 不相信… 不同意… 不同意… 中立及看情形…
##  2 非常不同意… 非常同意… 非常不同意… 非常同意… 同意  非常同意… 不同意… 不相信… 不同意… 不同意… 中立及看情形…
##  3 非常不同意… 同意   不同意 同意   非常同意… 非常同意… 同意  非常不相… 不同意… 同意  中立及看情形…
##  4 非常不同意… 很難說 很難說 很難說 不同意… 不同意… 同意  相信  同意  不同意… 民進黨 
##  5 非常同意… 非常同意… 不同意 同意   同意  同意  不同意… 非常不相… 非常不同… 非常不同… 國民黨 
##  6 不同意 同意   不同意 同意   同意  同意  同意  不相信… 不同意… 不同意… 國民黨 
##  7 同意   非常同意… 同意   非常同意… 不同意… 非常不同… 同意  不相信… 同意  非常不同… 民進黨 
##  8 同意   非常同意… 非常不同意… 同意   非常同意… 非常同意… 同意  非常不相… 非常不同… 不同意… 中立及看情形…
##  9 很難說 拒答   同意   拒答   同意  同意  不同意… 很難說… 很難說… 不同意… 中立及看情形…
## 10 同意   同意   不同意 不同意 非常同意… 同意  同意  不相信… 不同意… 同意  國民黨 
## # ... with 120 more rows, and 13 more variables: PARTY <fct>, tondu <fct>,
## #   ethnic <fct>, age <fct>, edu <fct>, sengiF <fct>, sengiM <fct>,
## #   CAREER <fct>, CAREER8 <fct>, TOWNID <dbl>, arear <fct>, sex <fct>,
## #   w <dbl>
…
如果資料內有遺漏值，可以設定na.rm這個參數為真，去除遺漏值，再進行統計，例如以flights這筆資料為例，根據tailnum也就是班機號碼，彙總計算班機次數以及距離：

library(nycflights13)
by_tailnum <- group_by(flights, tailnum)
delay <- summarise(by_tailnum,
  count = n(),
  dist = mean(distance, na.rm = TRUE))
delay

## # A tibble: 4,044 x 3
##    tailnum count  dist
##    <chr>   <int> <dbl>
##  1 D942DN      4  854.
##  2 N0EGMQ    371  676.
##  3 N10156    153  758.
##  4 N102UW     48  536.
##  5 N103US     46  535.
##  6 N104UW     47  535.
##  7 N10575    289  520.
##  8 N105UW     45  525.
##  9 N107US     41  529.
## 10 N108UW     60  534.
## # ... with 4,034 more rows

或者是（參考：https://dplyr.tidyverse.org/articles/dplyr.html ）：

flights %>% group_by(tailnum) %>%
  summarize(count=n(), avgdist=mean(distance, na.rm=TRUE))

## # A tibble: 4,044 x 3
##    tailnum count avgdist
##    <chr>   <int>   <dbl>
##  1 D942DN      4    854.
##  2 N0EGMQ    371    676.
##  3 N10156    153    758.
##  4 N102UW     48    536.
##  5 N103US     46    535.
##  6 N104UW     47    535.
##  7 N10575    289    520.
##  8 N105UW     45    525.
##  9 N107US     41    529.
## 10 N108UW     60    534.
## # ... with 4,034 more rows
…
## [1] 1
## [1] 2
## [1] 3

結合成為資料框，但是用tibble格式觀察資料：

countyname<-colnames(stat.dat)[-1]
temp.df <- data.frame(countyname, tempold, tempunemploy)
temp.df.t <-as_tibble(temp.df); temp.df.t

## # A tibble: 23 x 7
##    countyname    V1    V2    V3  V1.1  V2.1  V3.1
##  * <fct>      <dbl> <dbl> <dbl> <dbl> <dbl> <dbl>
##  1 臺北縣      6.37  6.44  6.55  3.00  4.90  5.50
##  2 宜蘭縣     10.2  10.5  10.8   3.60  5.00  5.40
##  3 桃園縣      7.46  7.49  7.51  2.00  4.30  5.10
##  4 新竹縣      9.69  9.91 10.2   1.70  3.80  4.40
##  5 苗栗縣     11.0  11.2  11.6   2.70  4.50  4.90
##  6 臺中縣      7.16  7.32  7.50  3.50  5.00  5.40
##  7 彰化縣      9.42  9.73 10.0   1.70  4.00  5.20
##  8 南投縣     10.6  10.9  11.2   3.80  4.90  5.30
##  9 雲林縣     11.6  12.0  12.4   2.60  4.10  4.70
## 10 嘉義縣     12.4  12.8  13.1   2.80  4.00  5.20
## # ... with 13 more rows
…
